…
### modeling metrics

``` r
collect_metrics(xgb_rs)
```

    ## # A tibble: 30 x 9
    ##     mtry trees min_n .metric  .estimator  mean     n std_err .config            
    ##    <int> <int> <int> <chr>    <chr>      <dbl> <int>   <dbl> <chr>              
    ##  1     2   599     8 accuracy binary     0.796    10 0.00735 Preprocessor1_Mode~
    ##  2     2   599     8 roc_auc  binary     0.884    10 0.00540 Preprocessor1_Mode~
    ##  3     3  1805    31 accuracy binary     0.785     3 0.0177  Preprocessor1_Mode~
    ##  4     3  1805    31 roc_auc  binary     0.864     3 0.0149  Preprocessor1_Mode~
    ##  5     4   136     3 accuracy binary     0.796    10 0.00781 Preprocessor1_Mode~
    ##  6     4   136     3 roc_auc  binary     0.883    10 0.00596 Preprocessor1_Mode~
    ##  7     6   122    21 accuracy binary     0.786     3 0.0169  Preprocessor1_Mode~
    ##  8     6   122    21 roc_auc  binary     0.869     3 0.0125  Preprocessor1_Mode~
    ##  9     7  1536    11 accuracy binary     0.796     4 0.0135  Preprocessor1_Mode~
    ## 10     7  1536    11 roc_auc  binary     0.877     4 0.00933 Preprocessor1_Mode~
    ## # ... with 20 more rows
…
